sample_name	result	confindr.contam_status.metric_value	confindr.contam_status.check_result	fastqc 1.Adapter Content.metric_value	fastqc 1.Adapter Content.check_result	fastqc 1.Basic Statistics.metric_value	fastqc 1.Basic Statistics.check_result	fastqc 1.Overrepresented sequences.metric_value	fastqc 1.Overrepresented sequences.check_result	fastqc 1.Per base N content.metric_value	fastqc 1.Per base N content.check_result	fastqc 1.Per base sequence content.metric_value	fastqc 1.Per base sequence content.check_result	fastqc 1.Per base sequence quality.metric_value	fastqc 1.Per base sequence quality.check_result	fastqc 1.Per sequence GC content.metric_value	fastqc 1.Per sequence GC content.check_result	fastqc 1.Per sequence quality scores.metric_value	fastqc 1.Per sequence quality scores.check_result	fastqc 1.Sequence Duplication Levels.metric_value	fastqc 1.Sequence Duplication Levels.check_result	fastqc 1.Sequence Length Distribution.metric_value	fastqc 1.Sequence Length Distribution.check_result	fastqc 2.Adapter Content.metric_value	fastqc 2.Adapter Content.check_result	fastqc 2.Basic Statistics.metric_value	fastqc 2.Basic Statistics.check_result	fastqc 2.Overrepresented sequences.metric_value	fastqc 2.Overrepresented sequences.check_result	fastqc 2.Per base N content.metric_value	fastqc 2.Per base N content.check_result	fastqc 2.Per base sequence content.metric_value	fastqc 2.Per base sequence content.check_result	fastqc 2.Per base sequence quality.metric_value	fastqc 2.Per base sequence quality.check_result	fastqc 2.Per sequence GC content.metric_value	fastqc 2.Per sequence GC content.check_result	fastqc 2.Per sequence quality scores.metric_value	fastqc 2.Per sequence quality scores.check_result	fastqc 2.Sequence Duplication Levels.metric_value	fastqc 2.Sequence Duplication Levels.check_result	fastqc 2.Sequence Length Distribution.metric_value	fastqc 2.Sequence Length Distribution.check_result	file_size_check.size.metric_value	file_size_check.size.check_result	quast.# contigs (>= 1000 bp).metric_value	quast.# contigs (>= 1000 bp).check_result	quast.N50.metric_value	quast.N50.check_result
fail_contamination	FAILURE	True	FAILURE	PASS	PASS	PASS	PASS	PASS	PASS	WARN	PASS	WARN	PASS	PASS	PASS	PASS	PASS	PASS	PASS	PASS	PASS	WARN	PASS	PASS	PASS	PASS	PASS	PASS	PASS	WARN	PASS	WARN	PASS	WARN	PASS	PASS	PASS	PASS	PASS	PASS	PASS	WARN	PASS	35.2	PASS	30	PASS	350000	PASS
fail_sample	FAILURE	False	PASS	PASS	PASS	PASS	PASS	PASS	PASS	WARN	PASS	WARN	PASS	FAIL	FAILURE	PASS	PASS	PASS	PASS	PASS	PASS	WARN	PASS	PASS	PASS	PASS	PASS	PASS	PASS	WARN	PASS	WARN	PASS	FAIL	FAILURE	PASS	PASS	PASS	PASS	PASS	PASS	WARN	PASS	35.2	PASS	300	FAILURE	35000	FAILURE
pass_sample	PASS	False	PASS	PASS	PASS	PASS	PASS	PASS	PASS	WARN	PASS	WARN	PASS	PASS	PASS	PASS	PASS	PASS	PASS	PASS	PASS	WARN	PASS	PASS	PASS	PASS	PASS	PASS	PASS	WARN	PASS	WARN	PASS	PASS	PASS	PASS	PASS	PASS	PASS	PASS	PASS	WARN	PASS	35.2	PASS	30	PASS	350000	PASS
warning_sample	WARNING	False	PASS	PASS	PASS	PASS	PASS	PASS	PASS	WARN	PASS	WARN	PASS	PASS	PASS	PASS	PASS	PASS	PASS	PASS	PASS	WARN	PASS	PASS	PASS	WARN	WARNING	PASS	PASS	WARN	PASS	WARN	PASS	PASS	PASS	PASS	PASS	PASS	PASS	PASS	PASS	WARN	PASS	35.2	PASS	30	PASS	350000	PASS
